{
  "espruino": {
    "RESET_BEFORE_SEND": true,
    "STORE_LINE_NUMBERS": true,
    "ENV_ON_CONNECT": true,
    "MODULE_URL": "https://www.espruino.com/modules|/Users/joshuataylor/SRC/water-module",
    "MODULE_EXTENSIONS": ".min.js|.js",
    "MODULE_AS_FUNCTION": true,
    "MODULE_PROXY_ENABLED": false,
    "MODULE_PROXY_URL": "",
    "MODULE_PROXY_PORT": "",
    "BAUD_RATE": 9600,
    "SERIAL_IGNORE": "/dev/ttyS*|/dev/*.SOC|/dev/*.MALS",
    "BLUETOOTH_LOW_ENERGY": true,
    "WEB_BLUETOOTH": true,
    "BOARD_JSON_URL": "http://www.espruino.com/json",
    "COMPILATION": true,
    "COMPILATION_URL": "https://www.espruino.com/service/compiler",
    "MINIFICATION_LEVEL": "",
    "MODULE_MINIFICATION_LEVEL": "ESPRIMA",
    "MINIFICATION_Mangle": true,
    "MINIFICATION_Unreachable": true,
    "MINIFICATION_Unused": true,
    "MINIFICATION_Literal": true,
    "MINIFICATION_DeadCode": true,
    "SAVE_ON_SEND": 0,
    "SET_TIME_ON_WRITE": false,
    "SERIAL_THROTTLE_SEND": false,
    "SERIAL_TCPIP": [
      "tcp://192.168.2.247"
    ],
    "SAVE_ON_SEND": true
  },
  "ports": [
    {
      "type": "path",
      "name": "tcp://192.168.2.247"
    }
  ],
  "config": {},
  "storageContents": {},
  "file": "./projects/newProject.js"
}
